title, body, field_image, field_code, field_duration, field_duration_unit, field_section_id, field_term_program, field_term_time, field_term_program_type, field_requirements, field_career
"Bachelor of Dental Surgery (B.D.S.)", "<p>Nulla in eros placerat augue volutpat dapibus non ac ante! Fusce dictum, velit ut imperdiet vulputate, sapien nisi malesuada ante, id tincidunt metus urna id massa. Aenean elit ante, lobortis eu auctor sit amet, luctus congue mi. Vivamus consectetur augue eu ipsum blandit tincidunt.</p><p>Integer malesuada adipiscing imperdiet. Aliquam erat volutpat. In luctus dolor at justo dapibus pretium. Fusce at bibendum nunc? Donec justo justo, iaculis in auctor eu, adipiscing et tortor. Maecenas ac quam metus.</p>", "bds_dentistry.jpg", "BDS", "6", "years", "School of Dentistry", "Bachelor of Dental Surgery", "Full-time", "Undergraduate", "<p>Maecenas lobortis magna sed tortor consectetur id fringilla erat gravida? Morbi rhoncus, neque iaculis interdum hendrerit, augue velit dapibus libero, bibendum aliquet purus libero ac elit. Fusce sit amet orci at eros scelerisque facilisis vel vitae nulla. Nunc faucibus augue id nibh iaculis ultricies.</p>", "<p>Morbi venenatis scelerisque tellus in porttitor. Sed pretium, nisl et gravida interdum, tortor ante feugiat sapien, non congue enim justo et nisl. Donec non nisl lacus. Nulla facilisi. Ut et urna in dolor semper accumsan. Fusce nulla neque, vehicula ut egestas tincidunt, vehicula sit amet quam. Sed ac sem sem, ac sagittis urna. Ut egestas tellus et libero sagittis nec ultricies enim massa nunc.</p>"
"Bachelor of Science (Biochemistry)", "<p>Suspendisse id varius erat. Sed mattis auctor fermentum. In elit leo, varius quis tempor id, auctor sed ipsum. Curabitur sagittis imperdiet interdum. Fusce dignissim purus id eros venenatis auctor? Proin semper ornare nisl, et rhoncus enim condimentum porta. Vestibulum porta magna felis, vitae hendrerit libero. Sed aliquet facilisis nunc, eget feugiat felis imperdiet blandit. Praesent lacus justo, volutpat sed dictum sed, malesuada id tellus. Mauris vel lacus quis libero pellentesque vestibulum vel in dolor.</p><p>Sed commodo odio urna, a facilisis orci? Etiam at tortor nunc. Duis diam enim, fringilla interdum vehicula ac, elementum ut orci? Nulla dignissim malesuada turpis, id pulvinar turpis convallis eget. Nam vitae justo turpis.</p>", "bsc_biochem.jpg", "BCH", "4", "years", "Department of Biochemistry", "Bachelor of Science (Chemistry)", "Full-time", "Undergraduate", "<p>Phasellus tellus massa, gravida eu dapibus ac, sodales ut erat. Sed ornare ultricies ligula, et porta orci bibendum non? Phasellus commodo, sem non pellentesque elementum, justo sapien condimentum nisi, quis bibendum lorem eros quis libero. Curabitur sed lorem tellus, blandit euismod purus.</p>", "<p>Ut nunc turpis; accumsan at vestibulum non, sagittis eget magna. Nam placerat porttitor consequat? Ut eget felis et neque sollicitudin blandit ac a ante! Nulla turpis duis.</p>"
"Diploma in Data Processing", "<p>Ut pretium ultrices ipsum, vitae pulvinar tortor pharetra vitae. Vivamus eget enim vitae dui adipiscing pellentesque quis placerat arcu. Nunc at mauris arcu, ac pretium lectus? Donec sit amet ante lacus. Vestibulum id eros ut arcu sodales pretium eu a purus. Cum sociis natoque penatibus et magnis dis parturient montes, nascetur ridiculus mus. Duis id tempus arcu. Integer imperdiet aliquet eros, a placerat augue pellentesque vitae! Praesent pharetra elit in urna facilisis porta.</p>", "dpp.jpg", "DDP", "2", "years", "Department of Computer Science", "Diploma in Data Processing", "Full-time", "Diploma", "<p>Donec vel lacus neque. Nam metus sapien, vestibulum quis placerat in, fermentum sit amet quam. Suspendisse sodales congue arcu egestas aliquam. Suspendisse sit amet nunc condimentum massa tincidunt auctor. Proin et lacus nulla. Etiam blandit, risus non congue sollicitudin, sem eros elementum felis, vitae dignissim mi elit vel urna. Nunc rhoncus augue ac odio eleifend hendrerit. Aliquam erat volutpat.</p>", "<p>Cras varius mi et tortor semper egestas. Sed urna ligula, dignissim quis sagittis vitae, sodales et justo. Aenean sodales gravida dui sed pharetra! Nulla facilisi. Quisque sollicitudin justo non elit faucibus pellentesque. Maecenas ac ligula risus; quis volutpat elit. Nunc accumsan, massa et placerat turpis duis.</p>"