title, status, body, field_acad_program_id, field_course_id, field_acad_year_id, field_acad_term_id, field_course_weight, field_level, field_prereq_id, field_coreq_id, field_nonreq_id, field_antireq_id, field_teacher_id
"Introduction to Computer Processing - 2012/2013 (1)","0","","Diploma in Data Processing","Introduction to Computer Processing","2012/2013","2012/2013 (1)","Core","100","","","","",DominicWebb
"Introduction to Computer Programming - 2012/2013 (1)","0","","Diploma in Data Processing","Introduction to Computer Programming","2012/2013","2012/2013 (1)","Core","100","","","","",NoahShort
"Elementary Mathematics - 2012/2013 (1)","0","","Diploma in Data Processing","Elementary Mathematics","2012/2013","2012/2013 (1)","Core","100","","","","","JamieBurgess,JonathanOliver"
"Programming Laboratory - 2012/2013 (1)","0","","Diploma in Data Processing","Programming Laboratory","2012/2013","2012/2013 (1)","Core","100","","","","",CharliePalmer
"Economics and Business Methods - 2012/2013 (1)","0","","Diploma in Data Processing","Economics and Business Methods","2012/2013","2012/2013 (1)","Core","100","","","","",HolliePratt
"COBOL Programming I - 2012/2013 (2)","0","","Diploma in Data Processing","COBOL Programming I","2012/2013","2012/2013 (2)","Core","100","","","","",PoppyGill
"Introduction to Fortran Programming Methods - 2012/2013 (2)","0","","Diploma in Data Processing","Introduction to Fortran Programming Methods","2012/2013","2012/2013 (2)","Core","100","","","","",JonathanOliver
"Elementary Statistics - 2012/2013 (2)","0","","Diploma in Data Processing","Elementary Statistics","2012/2013","2012/2013 (2)","Core","100","","","","",TomRogers
"Information Structure Representation - 2012/2013 (2)","0","","Diploma in Data Processing","Information Structure Representation","2012/2013","2012/2013 (2)","Core","100","","","","",TylerCraig
"Programming Laboratory II - 2012/2013 (2)","0","","Diploma in Data Processing","Programming Laboratory II","2012/2013","2012/2013 (2)","Core","100","","","","",AmberWebb
"Economics and Business Methods II - 2012/2013 (2)","0","","Diploma in Data Processing","Economics and Business Methods II","2012/2013","2012/2013 (2)","Core","100","","","","",IsobelRowley
"Principles of Accounting I - 2013/2014 (1)","1","","Diploma in Data Processing","Principles of Accounting I","2013/2014","2013/2014 (1)","Core","200","","","","",DominicWebb
"Programming Practice and Techniques - 2013/2014 (1)","1","","Diploma in Data Processing","Programming Practice and Techniques","2013/2014","2013/2014 (1)","Core","200","","","","",NoahShort
"Other Data Processing & Programming Methods - 2013/2014 (1)","1","","Diploma in Data Processing","Other Data Processing & Programming Methods","2013/2014","2013/2014 (1)","Core","200","","","","",JamieBurgess
"Introduction to Computational Maths - 2013/2014 (1)","1","","Diploma in Data Processing","Introduction to Computational Maths","2013/2014","2013/2014 (1)","Core","200","","","","",CharliePalmer
"Introduction to Dbase Programming - 2013/2014 (1)","1","","Diploma in Data Processing","Introduction to Dbase Programming","2013/2014","2013/2014 (1)","Core","200","","","","",HolliePratt
"Introduction to Assembly Language - 2013/2014 (1)","1","","Diploma in Data Processing","Introduction to Assembly Language","2013/2014","2013/2014 (1)","Core","200","","","","",PoppyGill
"Current Trends in Data Processing - 2013/2014 (2)","1","","Diploma in Data Processing","Current Trends in Data Processing","2013/2014","2013/2014 (2)","Core","200","","","","",JonathanOliver
"Management Practice - 2013/2014 (2)","1","","Diploma in Data Processing","Management Practice","2013/2014","2013/2014 (2)","Core","200","","","","",TomRogers
"Basic Operation Research - 2013/2014 (2)","1","","Diploma in Data Processing","Basic Operation Research","2013/2014","2013/2014 (2)","Core","200","","","","",TylerCraig
"Final Project - 2013/2014 (2)","1","","Diploma in Data Processing","Final Project","2013/2014","2013/2014 (2)","Core","200","","","","",AmberWebb
"Principles of Accounting II - 2013/2014 (2)","1","","Diploma in Data Processing","Principles of Accounting II","2013/2014","2013/2014 (2)","Core","200","","","","",IsobelRowley
"Introduction to Computer Processing - 2013/2014 (1)","1","","Diploma in Data Processing","Introduction to Computer Processing","2013/2014","2013/2014 (1)","Core","100","","","","",DominicWebb
"Introduction to Computer Programming - 2013/2014 (1)","1","","Diploma in Data Processing","Introduction to Computer Programming","2013/2014","2013/2014 (1)","Core","100","","","","",NoahShort
"Elementary Mathematics - 2013/2014 (1)","1","","Diploma in Data Processing","Elementary Mathematics","2013/2014","2013/2014 (1)","Core","100","","","","","JamieBurgess,TomRogers"
"Programming Laboratory - 2013/2014 (1)","1","","Diploma in Data Processing","Programming Laboratory","2013/2014","2013/2014 (1)","Core","100","","","","",CharliePalmer
"Economics and Business Methods - 2013/2014 (1)","1","","Diploma in Data Processing","Economics and Business Methods","2013/2014","2013/2014 (1)","Core","100","","","","",HolliePratt
"COBOL Programming I - 2013/2014 (2)","1","","Diploma in Data Processing","COBOL Programming I","2013/2014","2013/2014 (2)","Core","100","","","","",PoppyGill
"Introduction to Fortran Programming Methods - 2013/2014 (2)","1","","Diploma in Data Processing","Introduction to Fortran Programming Methods","2013/2014","2013/2014 (2)","Core","100","","","","",JonathanOliver
"Elementary Statistics - 2013/2014 (2)","1","","Diploma in Data Processing","Elementary Statistics","2013/2014","2013/2014 (2)","Core","100","","","","",TomRogers
"Information Structure Representation - 2013/2014 (2)","1","","Diploma in Data Processing","Information Structure Representation","2013/2014","2013/2014 (2)","Core","100","","","","",TylerCraig
"Programming Laboratory II - 2013/2014 (2)","1","","Diploma in Data Processing","Programming Laboratory II","2013/2014","2013/2014 (2)","Core","100","","","","","AmberWebb,NoahShort"
"Economics and Business Methods II - 2013/2014 (2)","1","","Diploma in Data Processing","Economics and Business Methods II","2013/2014","2013/2014 (2)","Core","100","","","","",IsobelRowley